chamber,label,tracker,baseSmall,baseLarge,height,eta,strips,x,y,z,angle
0,ME0-II-CHAMBER-0002-proto,true,235.2,574.8,787.9,8,384,0.0,0.0,0.0,0.0
1,ME0-RANDOM-0001,true,235.2,574.8,787.9,8,384,0.0,0.0,10.0,0.0
2,ME0-II-CHAMBER-0002,true,235.2,574.8,787.9,8,384,0.0,0.0,20.0,0.0
3,ME0-RANDOM-0002,true,235.2,574.8,787.9,8,384,0.0,0.0,30.0,0.0
