fed,slot,oh,vfat,chamber
11,0,0,0,0
11,0,0,1,0
11,0,0,2,0
11,0,0,3,0
11,0,0,4,0
11,0,0,5,0
11,0,0,6,0
11,0,0,7,0
11,0,0,8,0
11,0,0,9,0
11,0,0,10,0
11,0,0,11,0
11,0,1,0,1
11,0,1,1,1
11,0,1,2,1
11,0,1,3,1
11,0,1,4,1
11,0,1,5,1
11,0,1,6,1
11,0,1,7,1
11,0,1,8,1
11,0,1,9,1
11,0,1,10,1
11,0,1,11,1
11,0,2,0,2
11,0,2,1,2
11,0,2,2,2
11,0,2,3,2
11,0,2,4,2
11,0,2,5,2
11,0,2,6,2
11,0,2,7,2
11,0,2,8,2
11,0,2,9,2
11,0,2,10,2
11,0,2,11,2
11,0,3,0,3
11,0,3,1,3
11,0,3,2,3
11,0,3,3,3
11,0,3,4,3
11,0,3,5,3
11,0,3,6,3
11,0,3,7,3
11,0,3,8,3
11,0,3,9,3
11,0,3,10,3
11,0,3,11,3
11,0,4,0,4
11,0,4,1,4
11,0,4,2,4
11,0,4,3,4
11,0,4,4,4
11,0,4,5,4
11,0,4,6,4
11,0,4,7,4
11,0,4,8,4
11,0,4,9,4
11,0,4,10,4
11,0,4,11,4
11,0,5,0,5
11,0,5,1,5
11,0,5,2,5
11,0,5,3,5
11,0,5,4,5
11,0,5,5,5
11,0,5,6,5
11,0,5,7,5
11,0,5,8,5
11,0,5,9,5
11,0,5,10,5
11,0,5,11,5
11,0,6,0,6
11,0,6,1,6
11,0,6,2,6
11,0,6,3,6
11,0,6,4,6
11,0,6,5,6
11,0,6,6,6
11,0,6,7,6
11,0,6,8,6
11,0,6,9,6
11,0,6,10,6
11,0,6,11,6
11,0,7,0,7
11,0,7,1,7
11,0,7,2,7
11,0,7,3,7
11,0,7,4,7
11,0,7,5,7
11,0,7,6,7
11,0,7,7,7
11,0,7,8,7
11,0,7,9,7
11,0,7,10,7
11,0,7,11,7
11,0,8,0,8
11,0,8,1,8
11,0,8,2,8
11,0,8,3,8
11,0,8,4,8
11,0,8,5,8
11,0,8,6,8
11,0,8,7,8
11,0,8,8,8
11,0,8,9,8
11,0,8,10,8
11,0,8,11,8
11,0,9,0,9
11,0,9,1,9
11,0,9,2,9
11,0,9,3,9
11,0,9,4,9
11,0,9,5,9
11,0,9,6,9
11,0,9,7,9
11,0,9,8,9
11,0,9,9,9
11,0,9,10,9
11,0,9,11,9
11,0,10,0,10
11,0,10,1,10
11,0,10,2,10
11,0,10,3,10
11,0,10,4,10
11,0,10,5,10
11,0,10,6,10
11,0,10,7,10
11,0,10,8,10
11,0,10,9,10
11,0,10,10,10
11,0,10,11,10
11,0,11,0,11
11,0,11,1,11
11,0,11,2,11
11,0,11,3,11
11,0,11,4,11
11,0,11,5,11
11,0,11,6,11
11,0,11,7,11
11,0,11,8,11
11,0,11,9,11
11,0,11,10,11
11,0,11,11,11
10,0,0,0,12
10,0,0,1,12
10,0,0,2,12
10,0,0,3,12
10,0,0,4,12
10,0,0,5,12
10,0,0,6,12
10,0,0,7,12
10,0,0,8,12
10,0,0,9,12
10,0,0,10,12
10,0,0,11,12
10,0,1,0,13
10,0,1,1,13
10,0,1,2,13
10,0,1,3,13
10,0,1,4,13
10,0,1,5,13
10,0,1,6,13
10,0,1,7,13
10,0,1,8,13
10,0,1,9,13
10,0,1,10,13
10,0,1,11,13
10,0,2,0,14
10,0,2,1,14
10,0,2,2,14
10,0,2,3,14
10,0,2,4,14
10,0,2,5,14
10,0,2,6,14
10,0,2,7,14
10,0,2,8,14
10,0,2,9,14
10,0,2,10,14
10,0,2,11,14
10,0,3,0,15
10,0,3,1,15
10,0,3,2,15
10,0,3,3,15
10,0,3,4,15
10,0,3,5,15
10,0,3,6,15
10,0,3,7,15
10,0,3,8,15
10,0,3,9,15
10,0,3,10,15
10,0,3,11,15
10,0,4,0,16
10,0,4,1,16
10,0,4,2,16
10,0,4,3,16
10,0,4,4,16
10,0,4,5,16
10,0,4,6,16
10,0,4,7,16
10,0,4,8,16
10,0,4,9,16
10,0,4,10,16
10,0,4,11,16
10,0,5,0,17
10,0,5,1,17
10,0,5,2,17
10,0,5,3,17
10,0,5,4,17
10,0,5,5,17
10,0,5,6,17
10,0,5,7,17
10,0,5,8,17
10,0,5,9,17
10,0,5,10,17
10,0,5,11,17
10,0,6,0,18
10,0,6,1,18
10,0,6,2,18
10,0,6,3,18
10,0,6,4,18
10,0,6,5,18
10,0,6,6,18
10,0,6,7,18
10,0,6,8,18
10,0,6,9,18
10,0,6,10,18
10,0,6,11,18
10,0,7,0,19
10,0,7,1,19
10,0,7,2,19
10,0,7,3,19
10,0,7,4,19
10,0,7,5,19
10,0,7,6,19
10,0,7,7,19
10,0,7,8,19
10,0,7,9,19
10,0,7,10,19
10,0,7,11,19
10,0,8,0,20
10,0,8,1,20
10,0,8,2,20
10,0,8,3,20
10,0,8,4,20
10,0,8,5,20
10,0,8,6,20
10,0,8,7,20
10,0,8,8,20
10,0,8,9,20
10,0,8,10,20
10,0,8,11,20
10,0,9,0,21
10,0,9,1,21
10,0,9,2,21
10,0,9,3,21
10,0,9,4,21
10,0,9,5,21
10,0,9,6,21
10,0,9,7,21
10,0,9,8,21
10,0,9,9,21
10,0,9,10,21
10,0,9,11,21
10,0,10,0,22
10,0,10,1,22
10,0,10,2,22
10,0,10,3,22
10,0,10,4,22
10,0,10,5,22
10,0,10,6,22
10,0,10,7,22
10,0,10,8,22
10,0,10,9,22
10,0,10,10,22
10,0,10,11,22
10,0,11,0,23
10,0,11,1,23
10,0,11,2,23
10,0,11,3,23
10,0,11,4,23
10,0,11,5,23
10,0,11,6,23
10,0,11,7,23
10,0,11,8,23
10,0,11,9,23
10,0,11,10,23
10,0,11,11,23
